======================================================================
	SHARED BILLS SUMMARY

======================================================================
	HOLIDAYS SUMMARY

		A. Linh
			16-06-2015 - 01-01-2016
		Ben
			01-01-2015 - 01-07-2015
		C. Trang
			16-06-2015 - 01-01-2016
		Duc
			16-06-2015 - 01-01-2016
		Linh
			16-06-2015 - 01-01-2016
		Viet
			No holiday recorded
======================================================================
	BILLS DETAILS SUMMARY

1.	Electricity (28-04-2015 - 24-07-2015) 87 days - $630.78
	A. Linh	49 days	$101.00726
	Ben	23 days	$47.411575
	C. Trang	49 days	$101.00726
	Duc	49 days	$101.00726
	Linh	49 days	$101.00726
	Viet	87 days	$179.33943

2.	Gas (29-04-2015 - 26-06-2015) 58 days - $174.05
	A. Linh	48 days	$33.417603
	Ben	0 days	$0.0
	C. Trang	48 days	$33.417603
	Duc	48 days	$33.417603
	Linh	48 days	$33.417603
	Viet	58 days	$40.3796

3.	Water (17-04-2015 - 30-06-2015) 74 days - $209.89
	A. Linh	60 days	$40.10637
	Ben	0 days	$0.0
	C. Trang	60 days	$40.10637
	Duc	60 days	$40.10637
	Linh	60 days	$40.10637
	Viet	74 days	$49.464523

======================================================================
	PAYMENT SUMMARY

		A. Linh	$174.53123
		Ben	$47.411575
		C. Trang	$174.53123
		Duc	$174.53123
		Linh	$174.53123
		Viet	$269.18353
======================================================================
